......................
----------------------------------------------------------------------
Ran 22 tests in 0.589s

OK
Name             Stmts   Miss Branch BrPart  Cover   Missing
------------------------------------------------------------
Collatz.py          75      0     38      1    99%   1127->1138
TestCollatz.py      92      0      0      0   100%
------------------------------------------------------------
TOTAL              167      0     38      1    99%
